%YAML 1.1
%TAG !u! tag:unity3d.com,2011:
--- !u!1 &6627887175637885197
GameObject:
  m_ObjectHideFlags: 0
  m_CorrespondingSourceObject: {fileID: 0}
  m_PrefabInstance: {fileID: 0}
  m_PrefabAsset: {fileID: 0}
  serializedVersion: 6
  m_Component:
  - component: {fileID: 4693926364096099426}
  m_Layer: 0
  m_Name: GameObject
  m_TagString: Untagged
  m_Icon: {fileID: 0}
  m_NavMeshLayer: 0
  m_StaticEditorFlags: 0
  m_IsActive: 1
--- !u!4 &4693926364096099426
Transform:
  m_ObjectHideFlags: 0
  m_CorrespondingSourceObject: {fileID: 0}
  m_PrefabInstance: {fileID: 0}
  m_PrefabAsset: {fileID: 0}
  m_GameObject: {fileID: 6627887175637885197}
  m_LocalRotation: {x: 0, y: 0, z: 0, w: 1}
  m_LocalPosition: {x: 0, y: 0, z: 0}
  m_LocalScale: {x: 1, y: 1, z: 1}
  m_ConstrainProportionsScale: 0
  m_Children: []
  m_Father: {fileID: 1733864669607454717}
  m_RootOrder: 0
  m_LocalEulerAnglesHint: {x: 0, y: 0, z: 0}
--- !u!1001 &4541850811581670057
PrefabInstance:
  m_ObjectHideFlags: 0
  serializedVersion: 2
  m_Modification:
    m_TransformParent: {fileID: 0}
    m_Modifications:
    - target: {fileID: 2812508433585554772, guid: e3b1aad6e6567fd44a0585344c90d355,
        type: 3}
      propertyPath: m_RootOrder
      value: 0
      objectReference: {fileID: 0}
    - target: {fileID: 2812508433585554772, guid: e3b1aad6e6567fd44a0585344c90d355,
        type: 3}
      propertyPath: m_LocalScale.x
      value: 10
      objectReference: {fileID: 0}
    - target: {fileID: 2812508433585554772, guid: e3b1aad6e6567fd44a0585344c90d355,
        type: 3}
      propertyPath: m_LocalScale.y
      value: 10
      objectReference: {fileID: 0}
    - target: {fileID: 2812508433585554772, guid: e3b1aad6e6567fd44a0585344c90d355,
        type: 3}
      propertyPath: m_LocalScale.z
      value: 10
      objectReference: {fileID: 0}
    - target: {fileID: 2812508433585554772, guid: e3b1aad6e6567fd44a0585344c90d355,
        type: 3}
      propertyPath: m_LocalPosition.x
      value: -36.751137
      objectReference: {fileID: 0}
    - target: {fileID: 2812508433585554772, guid: e3b1aad6e6567fd44a0585344c90d355,
        type: 3}
      propertyPath: m_LocalPosition.y
      value: 40.57
      objectReference: {fileID: 0}
    - target: {fileID: 2812508433585554772, guid: e3b1aad6e6567fd44a0585344c90d355,
        type: 3}
      propertyPath: m_LocalPosition.z
      value: 1.28
      objectReference: {fileID: 0}
    - target: {fileID: 2812508433585554772, guid: e3b1aad6e6567fd44a0585344c90d355,
        type: 3}
      propertyPath: m_LocalRotation.w
      value: 1
      objectReference: {fileID: 0}
    - target: {fileID: 2812508433585554772, guid: e3b1aad6e6567fd44a0585344c90d355,
        type: 3}
      propertyPath: m_LocalRotation.x
      value: 0
      objectReference: {fileID: 0}
    - target: {fileID: 2812508433585554772, guid: e3b1aad6e6567fd44a0585344c90d355,
        type: 3}
      propertyPath: m_LocalRotation.y
      value: 0
      objectReference: {fileID: 0}
    - target: {fileID: 2812508433585554772, guid: e3b1aad6e6567fd44a0585344c90d355,
        type: 3}
      propertyPath: m_LocalRotation.z
      value: 0
      objectReference: {fileID: 0}
    - target: {fileID: 2812508433585554772, guid: e3b1aad6e6567fd44a0585344c90d355,
        type: 3}
      propertyPath: m_LocalEulerAnglesHint.x
      value: 0
      objectReference: {fileID: 0}
    - target: {fileID: 2812508433585554772, guid: e3b1aad6e6567fd44a0585344c90d355,
        type: 3}
      propertyPath: m_LocalEulerAnglesHint.y
      value: 0
      objectReference: {fileID: 0}
    - target: {fileID: 2812508433585554772, guid: e3b1aad6e6567fd44a0585344c90d355,
        type: 3}
      propertyPath: m_LocalEulerAnglesHint.z
      value: 0
      objectReference: {fileID: 0}
    - target: {fileID: 2812508433585554774, guid: e3b1aad6e6567fd44a0585344c90d355,
        type: 3}
      propertyPath: m_Materials.Array.data[0]
      value: 
      objectReference: {fileID: 2100000, guid: 0592191e17075dc4ba719099146e9e31, type: 2}
    - target: {fileID: 2812508433585554776, guid: e3b1aad6e6567fd44a0585344c90d355,
        type: 3}
      propertyPath: m_UseGravity
      value: 0
      objectReference: {fileID: 0}
    - target: {fileID: 2812508433585554778, guid: e3b1aad6e6567fd44a0585344c90d355,
        type: 3}
      propertyPath: m_Name
      value: Bot (4)
      objectReference: {fileID: 0}
    m_RemovedComponents: []
  m_SourcePrefab: {fileID: 100100000, guid: e3b1aad6e6567fd44a0585344c90d355, type: 3}
--- !u!4 &1733864669607454717 stripped
Transform:
  m_CorrespondingSourceObject: {fileID: 2812508433585554772, guid: e3b1aad6e6567fd44a0585344c90d355,
    type: 3}
  m_PrefabInstance: {fileID: 4541850811581670057}
  m_PrefabAsset: {fileID: 0}
